log/RV32IM-3new2_moptest.log
../mytest/moptest.hex
WARNING: RV32IM-3new2.v:28: $readmemh(test.hex): Not enough words in the file for the requested range [0:16383].
WARNING: RV32IM-3new2.v:698: $readmemh(test.hex): Not enough words in the file for the requested range [0:16383].
VCD info: dumpfile RV32IM.vcd opened for output.
                   0: PC = 00000000, OPCODE = 003232b70050011301000093, OPCODE2 = 00000, ALU_DATA = 003230000000000500000010, UART = 00
                   2: PC = 0000000c, OPCODE = 03a0021330a00193a0a28293, OPCODE2 = 00000, ALU_DATA = 0000003a0000030a00322a0a, UART = 00
                   3: PC = 0000000c, OPCODE = 03a0021330a00193a0a28293, OPCODE2 = 00000, ALU_DATA = 0000003a0000030a00322414, UART = 00
                   4: PC = 00000018, OPCODE = 01200093000000000030030b, OPCODE2 = 007dc, ALU_DATA = 0000001200000000003000fb, UART = 00
                   6: PC = 00000024, OPCODE = 01200093000000000032330b, OPCODE2 = 05054, ALU_DATA = 000000120000000000322a0a, UART = 00
                   8: PC = 00000030, OPCODE = 001000930000000000a1338b, OPCODE2 = 05054, ALU_DATA = 000000010000000000a12a0a, UART = 00
                  10: PC = 0000003c, OPCODE = 004002130030019300200113, OPCODE2 = 00000, ALU_DATA = 000000040000000300000002, UART = 00
                  12: PC = 00000048, OPCODE = 00209193000000000010918b, OPCODE2 = 00012, ALU_DATA = 000000040000000000000004, UART = 00
                  14: PC = 00000054, OPCODE = 0040011300800093002181b3, OPCODE2 = 00000, ALU_DATA = 000000040000000800000006, UART = 00
                  15: PC = 00000054, OPCODE = 0040011300800093002181b3, OPCODE2 = 00000, ALU_DATA = 00000004000000080000000a, UART = 00
                  16: PC = 00000060, OPCODE = 00000000000000000020818b, OPCODE2 = 10003, ALU_DATA = 00000000000000000000000c, UART = 00
                  18: PC = 00000068, OPCODE = 402081b300500293003002b3, OPCODE2 = 00000, ALU_DATA = 0000000400000005a0a28293, UART = 00
                  19: PC = 00000068, OPCODE = 402081b300500293003002b3, OPCODE2 = 00000, ALU_DATA = 000000040000000500000004, UART = 00
                  20: PC = 00000074, OPCODE = 000000000000000000018183, OPCODE2 = 00000, ALU_DATA = 000000000000000000000004, UART = 00
                  21: PC = 00000074, OPCODE = 000000000000000000018183, OPCODE2 = 00000, ALU_DATA = 000000000000000000000013, UART = 00
                  22: PC = 00000078, OPCODE = 000001b700500293003002b3, OPCODE2 = 00000, ALU_DATA = 000000000000000500000013, UART = 00
                  23: PC = 00000078, OPCODE = 000001b700500293003002b3, OPCODE2 = 00000, ALU_DATA = 000000000000000500000000, UART = 00
                  24: PC = 00000084, OPCODE = 00000000000000000041a183, OPCODE2 = 00000, ALU_DATA = 000000000000000000000004, UART = 00
                  25: PC = 00000084, OPCODE = 00000000000000000041a183, OPCODE2 = 00000, ALU_DATA = 000000000000000000500117, UART = 00
                  26: PC = 00000088, OPCODE = 0000019700500293003002b3, OPCODE2 = 00000, ALU_DATA = 000000900000000500500113, UART = 00
                  27: PC = 00000088, OPCODE = 0000019700500293003002b3, OPCODE2 = 00000, ALU_DATA = 000000900000000500000090, UART = 00
                  28: PC = 00000094, OPCODE = 0000000000000000ffc1a183, OPCODE2 = 00000, ALU_DATA = 00000000000000000000008c, UART = 00
                  29: PC = 00000094, OPCODE = 0000000000000000ffc1a183, OPCODE2 = 00000, ALU_DATA = 00000000000000000050028f, UART = 00
                  30: PC = 00000098, OPCODE = 0000119700500293003002b3, OPCODE2 = 00000, ALU_DATA = 000010a00000000500500293, UART = 00
                  31: PC = 00000098, OPCODE = 0000119700500293003002b3, OPCODE2 = 00000, ALU_DATA = 000010a000000005000010a0, UART = 00
                  32: PC = 000000a4, OPCODE = 0000000000000000f381a183, OPCODE2 = 00000, ALU_DATA = 000000000000000000000fd8, UART = 00
                  33: PC = 000000a4, OPCODE = 0000000000000000f381a183, OPCODE2 = 00000, ALU_DATA = 0000000000000000xxxxxxxx, UART = 00
                  34: PC = 000000a8, OPCODE = 0000006f00500293003002b3, OPCODE2 = 00000, ALU_DATA = 000000b000000005xxxxxxxx, UART = 00
                  36: PC = 000000b0, OPCODE = 00000000000000000000006f, OPCODE2 = 00000, ALU_DATA = 0000000000000000000000b0, UART = 00
../mytest/moptest2.hex
WARNING: RV32IM-3new2.v:28: $readmemh(test.hex): Not enough words in the file for the requested range [0:16383].
WARNING: RV32IM-3new2.v:698: $readmemh(test.hex): Not enough words in the file for the requested range [0:16383].
VCD info: dumpfile RV32IM.vcd opened for output.
                   0: PC = 00000000, OPCODE = 000000000050011300200093, OPCODE2 = 00000, ALU_DATA = 000000000000000500000002, UART = 00
                   2: PC = 00000008, OPCODE = 00000000000000000220918b, OPCODE2 = 00021, ALU_DATA = 00000000000000000000000a, UART = 00
                   4: PC = 00000010, OPCODE = 0000000000400333003002b3, OPCODE2 = 00000, ALU_DATA = 00000000000000000000000a, UART = 00
                   6: PC = 00000018, OPCODE = 00000000000000000220a18b, OPCODE2 = 00021, ALU_DATA = 00000000000000000000000a, UART = 00
                   8: PC = 00000020, OPCODE = 0000000000400333003002b3, OPCODE2 = 00000, ALU_DATA = 00000000000000000000000a, UART = 00
                  10: PC = 00000028, OPCODE = 00000000000000000220b18b, OPCODE2 = 00021, ALU_DATA = 00000000000000000000000a, UART = 00
                  12: PC = 00000030, OPCODE = 000010b700400333003002b3, OPCODE2 = 00000, ALU_DATA = 00001000000000000000000a, UART = 00
                  14: PC = 0000003c, OPCODE = 0000000000000000fabc110b, OPCODE2 = 011a4, ALU_DATA = 0000000000000000fabc1234, UART = 00
                  16: PC = 00000044, OPCODE = 00000000000000000220918b, OPCODE2 = 00021, ALU_DATA = 0000000000000000c1234000, UART = 00
                  18: PC = 0000004c, OPCODE = 0000000000400333003002b3, OPCODE2 = 00000, ALU_DATA = 00000000ffffffabc1234000, UART = 00
                  20: PC = 00000054, OPCODE = 00000000000000000220a18b, OPCODE2 = 00021, ALU_DATA = 0000000000000000c1234000, UART = 00
                  22: PC = 0000005c, OPCODE = 0000000000400333003002b3, OPCODE2 = 00000, ALU_DATA = 0000000000000fabc1234000, UART = 00
                  24: PC = 00000064, OPCODE = 00000000000000000211218b, OPCODE2 = 00021, ALU_DATA = 0000000000000000c1234000, UART = 00
                  26: PC = 0000006c, OPCODE = 0000000000400333003002b3, OPCODE2 = 00000, ALU_DATA = 00000000ffffffabc1234000, UART = 00
                  28: PC = 00000074, OPCODE = 00000000000000000220b18b, OPCODE2 = 00021, ALU_DATA = 0000000000000000c1234000, UART = 00
                  30: PC = 0000007c, OPCODE = 800000b700400333003002b3, OPCODE2 = 00000, ALU_DATA = 8000000000000fabc1234000, UART = 00
                  32: PC = 00000088, OPCODE = 000000000000000012308093, OPCODE2 = 00000, ALU_DATA = 000000000000000080000123, UART = 00
                  33: PC = 00000088, OPCODE = 000000000000000012308093, OPCODE2 = 00000, ALU_DATA = 000000000000000080000246, UART = 00
                  34: PC = 0000008c, OPCODE = 00000000000000000200918b, OPCODE2 = 00021, ALU_DATA = 000000000000000000000000, UART = 00
                  36: PC = 00000094, OPCODE = 0000000000400333003002b3, OPCODE2 = 00000, ALU_DATA = 000000000000000000000000, UART = 00
                  38: PC = 0000009c, OPCODE = 00000000000000000200a18b, OPCODE2 = 00021, ALU_DATA = 000000000000000000000000, UART = 00
                  40: PC = 000000a4, OPCODE = 0000000000400333003002b3, OPCODE2 = 00000, ALU_DATA = 000000000000000000000000, UART = 00
                  42: PC = 000000ac, OPCODE = 00000000000000000200b18b, OPCODE2 = 00021, ALU_DATA = 000000000000000000000000, UART = 00
                  44: PC = 000000b4, OPCODE = 0050011300400333003002b3, OPCODE2 = 00000, ALU_DATA = 000000050000000000000000, UART = 00
                  46: PC = 000000c0, OPCODE = 00000000000000000220918b, OPCODE2 = 00021, ALU_DATA = 0000000000000000800005af, UART = 00
                  48: PC = 000000c8, OPCODE = 0000000000400333003002b3, OPCODE2 = 00000, ALU_DATA = 00000000fffffffd800005af, UART = 00
                  50: PC = 000000d0, OPCODE = 00000000000000000220a18b, OPCODE2 = 00021, ALU_DATA = 0000000000000000800005af, UART = 00
                  52: PC = 000000d8, OPCODE = 0000000000400333003002b3, OPCODE2 = 00000, ALU_DATA = 00000000fffffffd800005af, UART = 00
                  54: PC = 000000e0, OPCODE = 00000000000000000211218b, OPCODE2 = 00021, ALU_DATA = 0000000000000000800005af, UART = 00
                  56: PC = 000000e8, OPCODE = 0000000000400333003002b3, OPCODE2 = 00000, ALU_DATA = 0000000000000002800005af, UART = 00
                  58: PC = 000000f0, OPCODE = 00000000000000000220918b, OPCODE2 = 00021, ALU_DATA = 0000000000000000800005af, UART = 00
                  60: PC = 000000f8, OPCODE = 0060031300400333003002b3, OPCODE2 = 00000, ALU_DATA = 00000006fffffffd800005af, UART = 00
                  62: PC = 00000104, OPCODE = 00000000000000000000006f, OPCODE2 = 00000, ALU_DATA = 000000000000000000000104, UART = 00
../mytest/moptest3.hex
WARNING: RV32IM-3new2.v:28: $readmemh(test.hex): Not enough words in the file for the requested range [0:16383].
WARNING: RV32IM-3new2.v:698: $readmemh(test.hex): Not enough words in the file for the requested range [0:16383].
VCD info: dumpfile RV32IM.vcd opened for output.
                   0: PC = 00000000, OPCODE = 000000000020011300700093, OPCODE2 = 00000, ALU_DATA = 000000000000000200000007, UART = 00
                   2: PC = 00000008, OPCODE = 00000000000000000220c18b, OPCODE2 = 00021, ALU_DATA = 000000000000000000000003, UART = 00
                   4: PC = 00000010, OPCODE = 0000000000400333003002b3, OPCODE2 = 00000, ALU_DATA = 000000000000000100000003, UART = 00
                   6: PC = 00000018, OPCODE = 00000000000000000220d18b, OPCODE2 = 00021, ALU_DATA = 000000000000000000000003, UART = 00
                   8: PC = 00000020, OPCODE = 0190009300400333003002b3, OPCODE2 = 00000, ALU_DATA = 000000190000000100000003, UART = 00
                  10: PC = 0000002c, OPCODE = 000000000000000000300113, OPCODE2 = 00000, ALU_DATA = 000000000000000000000003, UART = 00
                  12: PC = 00000030, OPCODE = 00000000000000000220c18b, OPCODE2 = 00021, ALU_DATA = 000000000000000000000008, UART = 00
                  14: PC = 00000038, OPCODE = 0000000000400333003002b3, OPCODE2 = 00000, ALU_DATA = 000000000000000100000008, UART = 00
                  16: PC = 00000040, OPCODE = 00000000000000000220d18b, OPCODE2 = 00021, ALU_DATA = 000000000000000000000008, UART = 00
                  18: PC = 00000048, OPCODE = 0030009300400333003002b3, OPCODE2 = 00000, ALU_DATA = 000000030000000100000008, UART = 00
                  20: PC = 00000054, OPCODE = 000000000000000001900113, OPCODE2 = 00000, ALU_DATA = 000000000000000000000019, UART = 00
                  22: PC = 00000058, OPCODE = 00000000000000000220c18b, OPCODE2 = 00021, ALU_DATA = 000000000000000000000000, UART = 00
                  24: PC = 00000060, OPCODE = 0000000000400333003002b3, OPCODE2 = 00000, ALU_DATA = 000000000000000300000000, UART = 00
                  26: PC = 00000068, OPCODE = 00000000000000000220d18b, OPCODE2 = 00021, ALU_DATA = 000000000000000000000000, UART = 00
                  28: PC = 00000070, OPCODE = 0190009300400333003002b3, OPCODE2 = 00000, ALU_DATA = 000000190000000300000000, UART = 00
                  30: PC = 0000007c, OPCODE = 0000000000000000ff900113, OPCODE2 = 00000, ALU_DATA = 0000000000000000fffffff9, UART = 00
                  32: PC = 00000080, OPCODE = 00000000000000000220c18b, OPCODE2 = 00021, ALU_DATA = 0000000000000000fffffffd, UART = 00
                  34: PC = 00000088, OPCODE = 0000000000400333003002b3, OPCODE2 = 00000, ALU_DATA = 0000000000000004fffffffd, UART = 00
                  36: PC = 00000090, OPCODE = 00000000000000000220d18b, OPCODE2 = 00021, ALU_DATA = 000000000000000000000000, UART = 00
                  38: PC = 00000098, OPCODE = 0000006f00400333003002b3, OPCODE2 = 00000, ALU_DATA = 000000a00000001900000000, UART = 00
                  40: PC = 000000a0, OPCODE = 00000000000000000000006f, OPCODE2 = 00000, ALU_DATA = 0000000000000000000000a0, UART = 00
../mytest/moptest4.hex
WARNING: RV32IM-3new2.v:28: $readmemh(test.hex): Not enough words in the file for the requested range [0:16383].
WARNING: RV32IM-3new2.v:698: $readmemh(test.hex): Not enough words in the file for the requested range [0:16383].
VCD info: dumpfile RV32IM.vcd opened for output.
                   0: PC = 00000000, OPCODE = 000000000000000000000093, OPCODE2 = 00000, ALU_DATA = 000000000000000000000000, UART = 00
                   2: PC = 00000004, OPCODE = 00000000000000000000a10b, OPCODE2 = 0001e, ALU_DATA = 000000000000000000000000, UART = 00
                   4: PC = 0000000c, OPCODE = 004000930001801300010013, OPCODE2 = 00000, ALU_DATA = 000000040000a10300000093, UART = 00
                   6: PC = 00000018, OPCODE = 00000000000000000040a10b, OPCODE2 = 0001e, ALU_DATA = 000000000000000000000008, UART = 00
                   8: PC = 00000020, OPCODE = 100000930001801300010013, OPCODE2 = 00000, ALU_DATA = 00000100000100130040a183, UART = 00
                  10: PC = 0000002c, OPCODE = bb8831b70000000011ffb10b, OPCODE2 = 054cc, ALU_DATA = bb8830000000000011ffaa99, UART = 00
                  12: PC = 00000038, OPCODE = 000000000000000032218193, OPCODE2 = 00000, ALU_DATA = 0000000000000000bb883322, UART = 00
                  13: PC = 00000038, OPCODE = 000000000000000032218193, OPCODE2 = 00000, ALU_DATA = 0000000000000000bb883644, UART = 00
                  14: PC = 0000003c, OPCODE = 00000000000000000020a00b, OPCODE2 = 0801e, ALU_DATA = 000000000000000000000100, UART = 00
                  16: PC = 00000044, OPCODE = 00000000000000000000a20b, OPCODE2 = 0002e, ALU_DATA = 000000000000000000000100, UART = 00
                  18: PC = 0000004c, OPCODE = 000000000002801300020013, OPCODE2 = 00000, ALU_DATA = 00000000bb88332211ffaa99, UART = 00
                  20: PC = 00000054, OPCODE = 00000000000000000020a20b, OPCODE2 = 1801e, ALU_DATA = 000000000000000000000104, UART = 00
                  22: PC = 0000005c, OPCODE = 00000000000000000040a20b, OPCODE2 = 1002e, ALU_DATA = 000000000000000000000104, UART = 00
                  24: PC = 00000064, OPCODE = 000000000002801300020013, OPCODE2 = 00000, ALU_DATA = 00000000bb88332211ffaa99, UART = 00
                  26: PC = 0000006c, OPCODE = 00000000004080930000a303, OPCODE2 = 00000, ALU_DATA = 000000000000010400000100, UART = 00
                  27: PC = 0000006c, OPCODE = 00000000004080930000a303, OPCODE2 = 00000, ALU_DATA = 000000000000010800000104, UART = 00
                  28: PC = 00000074, OPCODE = 000000000000006f00008013, OPCODE2 = 00000, ALU_DATA = 000000000000007800000104, UART = 00
                  30: PC = 00000078, OPCODE = 00000000000000000000006f, OPCODE2 = 00000, ALU_DATA = 000000000000000000000078, UART = 00
../mytest/moptest5.hex
WARNING: RV32IM-3new2.v:28: $readmemh(test.hex): Not enough words in the file for the requested range [0:16383].
WARNING: RV32IM-3new2.v:698: $readmemh(test.hex): Not enough words in the file for the requested range [0:16383].
VCD info: dumpfile RV32IM.vcd opened for output.
                   0: PC = 00000000, OPCODE = 00000000beefa13700800093, OPCODE2 = 00000, ALU_DATA = 00000000beefa00000000008, UART = 00
                   2: PC = 00000008, OPCODE = 000000000000000066410113, OPCODE2 = 00000, ALU_DATA = 0000000000000000beefa664, UART = 00
                   3: PC = 00000008, OPCODE = 000000000000000066410113, OPCODE2 = 00000, ALU_DATA = 0000000000000000beefacc8, UART = 00
                   4: PC = 0000000c, OPCODE = 00000013000000130020a023, OPCODE2 = 00000, ALU_DATA = 000000000000000000000008, UART = 00
                   6: PC = 00000018, OPCODE = 000000001234513700c00093, OPCODE2 = 00000, ALU_DATA = 00000000123450000000000c, UART = 00
                   8: PC = 00000020, OPCODE = 000000000000000067810113, OPCODE2 = 00000, ALU_DATA = 000000000000000012345678, UART = 00
                   9: PC = 00000020, OPCODE = 000000000000000067810113, OPCODE2 = 00000, ALU_DATA = 000000000000000012345cf0, UART = 00
                  10: PC = 00000024, OPCODE = 00000013000000130020a023, OPCODE2 = 00000, ALU_DATA = 00000000000000000000000c, UART = 00
                  12: PC = 00000030, OPCODE = 0ff001930040011300200093, OPCODE2 = 00000, ALU_DATA = 000000ff0000000400000002, UART = 00
                  14: PC = 0000003c, OPCODE = 00000000000000000010918b, OPCODE2 = 10017, ALU_DATA = 000000000000000000000008, UART = 00
                  16: PC = 00000048, OPCODE = 003002b3003002b3003002b3, OPCODE2 = 00000, ALU_DATA = beefa664beefa664beefa664, UART = 00
                  18: PC = 00000054, OPCODE = 00000000000000000020918b, OPCODE2 = 10017, ALU_DATA = 00000000000000000000000c, UART = 00
                  20: PC = 00000060, OPCODE = 003002b3003002b3003002b3, OPCODE2 = 00000, ALU_DATA = 123456781234567812345678, UART = 00
                  22: PC = 0000006c, OPCODE = 000000000000000000309193, OPCODE2 = 00000, ALU_DATA = 000000000000000000000010, UART = 00
                  24: PC = 00000070, OPCODE = 00000000000000000021818b, OPCODE2 = 10003, ALU_DATA = 000000000000000000000014, UART = 00
                  25: PC = 00000070, OPCODE = 00000000000000000021818b, OPCODE2 = 10003, ALU_DATA = 000000000000000000000017, UART = 00
                  26: PC = 00000078, OPCODE = 0000000000109193003002b3, OPCODE2 = 00000, ALU_DATA = 000000000000000400000013, UART = 00
                  27: PC = 00000078, OPCODE = 0000000000109193003002b3, OPCODE2 = 00000, ALU_DATA = 000000000000000400000004, UART = 00
                  28: PC = 00000080, OPCODE = 00000000000000000021818b, OPCODE2 = 10003, ALU_DATA = 000000000000000000000008, UART = 00
                  29: PC = 00000080, OPCODE = 00000000000000000021818b, OPCODE2 = 10003, ALU_DATA = 0000000000000000beefa668, UART = 00
                  30: PC = 00000088, OPCODE = 003002b3003002b3003002b3, OPCODE2 = 00000, ALU_DATA = beefa664beefa664beefa664, UART = 00
                  32: PC = 00000094, OPCODE = 00000000000000000000006f, OPCODE2 = 00000, ALU_DATA = 000000000000000000000094, UART = 00
../mytest/moptest6.hex
WARNING: RV32IM-3new2.v:28: $readmemh(test.hex): Not enough words in the file for the requested range [0:16383].
WARNING: RV32IM-3new2.v:698: $readmemh(test.hex): Not enough words in the file for the requested range [0:16383].
VCD info: dumpfile RV32IM.vcd opened for output.
                   0: PC = 00000000, OPCODE = 000000000000000000000093, OPCODE2 = 00000, ALU_DATA = 000000000000000000000000, UART = 00
                   2: PC = 00000004, OPCODE = 00000000000000000000a10b, OPCODE2 = 00418, ALU_DATA = 000000000000000000000000, UART = 00
                   4: PC = 00000010, OPCODE = 000200130001801300010013, OPCODE2 = 00000, ALU_DATA = 0040a1830000a10300000093, UART = 00
                   6: PC = 0000001c, OPCODE = 000000000000000000400093, OPCODE2 = 00000, ALU_DATA = 000000000000000000000004, UART = 00
                   8: PC = 00000020, OPCODE = 00000000000000000080a10b, OPCODE2 = 10418, ALU_DATA = 00000000000000000000000c, UART = 00
                  10: PC = 0000002c, OPCODE = 000200130001801300010013, OPCODE2 = 00000, ALU_DATA = 0000a1030040a1830080a203, UART = 00
                  12: PC = 00000038, OPCODE = 0000000011ffb13710000093, OPCODE2 = 00000, ALU_DATA = 0000000011ffb00000000100, UART = 00
                  14: PC = 00000040, OPCODE = 00000000bb8831b7a9910113, OPCODE2 = 00000, ALU_DATA = 00000000bb88300011ffaa99, UART = 00
                  15: PC = 00000040, OPCODE = 00000000bb8831b7a9910113, OPCODE2 = 00000, ALU_DATA = 00000000bb88300011ffa532, UART = 00
                  16: PC = 00000048, OPCODE = 000000000000000032218193, OPCODE2 = 00000, ALU_DATA = 0000000000000000bb883322, UART = 00
                  17: PC = 00000048, OPCODE = 000000000000000032218193, OPCODE2 = 00000, ALU_DATA = 0000000000000000bb883644, UART = 00
                  18: PC = 0000004c, OPCODE = 00000000000000000020a00b, OPCODE2 = 08418, ALU_DATA = 000000000000000000000100, UART = 00
                  20: PC = 00000058, OPCODE = 00000000000000000000a28b, OPCODE2 = 00730, ALU_DATA = 000000000000000000000100, UART = 00
                  22: PC = 00000064, OPCODE = 000380130003001300028013, OPCODE2 = 00000, ALU_DATA = 0000a103bb88332211ffaa99, UART = 00
                  24: PC = 00000070, OPCODE = 00000000000000000020a60b, OPCODE2 = 18418, ALU_DATA = 00000000000000000000010c, UART = 00
                  26: PC = 0000007c, OPCODE = 000000000000000000c0a28b, OPCODE2 = 10730, ALU_DATA = 00000000000000000000010c, UART = 00
                  28: PC = 00000088, OPCODE = 000380130003001300028013, OPCODE2 = 00000, ALU_DATA = 0000a103bb88332211ffaa99, UART = 00
                  30: PC = 00000094, OPCODE = 00000000004080930000a303, OPCODE2 = 00000, ALU_DATA = 000000000000010400000100, UART = 00
                  31: PC = 00000094, OPCODE = 00000000004080930000a303, OPCODE2 = 00000, ALU_DATA = 000000000000010800000104, UART = 00
                  32: PC = 0000009c, OPCODE = 000000000000006f00008013, OPCODE2 = 00000, ALU_DATA = 00000000000000a000000104, UART = 00
                  34: PC = 000000a0, OPCODE = 00000000000000000000006f, OPCODE2 = 00000, ALU_DATA = 0000000000000000000000a0, UART = 00
