log/RV32IM-2new_moptest.log
../mytest/moptest.hex
WARNING: RV32IM-2new.v:28: $readmemh(test.hex): Not enough words in the file for the requested range [0:16383].
WARNING: RV32IM-2new.v:585: $readmemh(test.hex): Not enough words in the file for the requested range [0:16383].
VCD info: dumpfile RV32IM.vcd opened for output.
                   0: PC = 00000000, OPCODE = 0050011301000093, OPCODE2 = 00000, ALU_DATA = 0000000500000010, UART = 00
                   2: PC = 00000008, OPCODE = 000000000032328b, OPCODE2 = 05054, ALU_DATA = 0000000000322a0a, UART = 00
                   4: PC = 00000010, OPCODE = 03a0021330a00193, OPCODE2 = 00000, ALU_DATA = 0000003a0000030a, UART = 00
                   6: PC = 00000018, OPCODE = 000000000030030b, OPCODE2 = 007dc, ALU_DATA = 00000000003000fb, UART = 00
                   8: PC = 00000020, OPCODE = 0032333701200093, OPCODE2 = 00000, ALU_DATA = 0032300000000012, UART = 00
                  10: PC = 00000028, OPCODE = 01200093a0a30313, OPCODE2 = 00000, ALU_DATA = 0000001200322a0a, UART = 00
                  11: PC = 00000028, OPCODE = 01200093a0a30313, OPCODE2 = 00000, ALU_DATA = 0000001200322414, UART = 00
                  12: PC = 00000030, OPCODE = 0000000000a1338b, OPCODE2 = 05054, ALU_DATA = 0000000000a12a0a, UART = 00
                  14: PC = 00000038, OPCODE = 0020011300100093, OPCODE2 = 00000, ALU_DATA = 0000000200000001, UART = 00
                  16: PC = 00000040, OPCODE = 0040021300300193, OPCODE2 = 00000, ALU_DATA = 0000000400000003, UART = 00
                  18: PC = 00000048, OPCODE = 000000000010918b, OPCODE2 = 00012, ALU_DATA = 0000000000000004, UART = 00
                  20: PC = 00000050, OPCODE = 000000000020918b, OPCODE2 = 00012, ALU_DATA = 0000000000000006, UART = 00
                  22: PC = 00000058, OPCODE = 0040011300800093, OPCODE2 = 00000, ALU_DATA = 0000000400000008, UART = 00
                  24: PC = 00000060, OPCODE = 000000000020818b, OPCODE2 = 10003, ALU_DATA = 000000000000000c, UART = 00
                  26: PC = 00000068, OPCODE = 00500293003002b3, OPCODE2 = 00000, ALU_DATA = 00000005a0a28293, UART = 00
                  28: PC = 00000070, OPCODE = 000000004020818b, OPCODE2 = 00003, ALU_DATA = 0000000000000004, UART = 00
                  30: PC = 00000078, OPCODE = 00500293003002b3, OPCODE2 = 00000, ALU_DATA = 0000000500000013, UART = 00
                  32: PC = 00000080, OPCODE = 000000000000018b, OPCODE2 = 10025, ALU_DATA = 0000000000000004, UART = 00
                  34: PC = 00000088, OPCODE = 00500293003002b3, OPCODE2 = 00000, ALU_DATA = 0000000500500113, UART = 00
                  36: PC = 00000090, OPCODE = 0000000000000197, OPCODE2 = 00000, ALU_DATA = 0000000000000090, UART = 00
                  38: PC = 00000094, OPCODE = 00000000ffc1a183, OPCODE2 = 00000, ALU_DATA = 000000000000008c, UART = 00
                  39: PC = 00000094, OPCODE = 00000000ffc1a183, OPCODE2 = 00000, ALU_DATA = 000000000050028f, UART = 00
                  40: PC = 00000098, OPCODE = 00500293003002b3, OPCODE2 = 00000, ALU_DATA = 0000000500500293, UART = 00
                  42: PC = 000000a0, OPCODE = 0000000000001197, OPCODE2 = 00000, ALU_DATA = 00000000000010a0, UART = 00
                  44: PC = 000000a4, OPCODE = 00000000f381a183, OPCODE2 = 00000, ALU_DATA = 0000000000000fd8, UART = 00
                  45: PC = 000000a4, OPCODE = 00000000f381a183, OPCODE2 = 00000, ALU_DATA = 00000000xxxxxxxx, UART = 00
                  46: PC = 000000a8, OPCODE = 00500293003002b3, OPCODE2 = 00000, ALU_DATA = 00000005xxxxxxxx, UART = 00
                  48: PC = 000000b0, OPCODE = 000000000000006f, OPCODE2 = 00000, ALU_DATA = 00000000000000b0, UART = 00
../mytest/moptest2.hex
WARNING: RV32IM-2new.v:28: $readmemh(test.hex): Not enough words in the file for the requested range [0:16383].
WARNING: RV32IM-2new.v:585: $readmemh(test.hex): Not enough words in the file for the requested range [0:16383].
VCD info: dumpfile RV32IM.vcd opened for output.
                   0: PC = 00000000, OPCODE = 0050011300200093, OPCODE2 = 00000, ALU_DATA = 0000000500000002, UART = 00
                   2: PC = 00000008, OPCODE = 000000000220918b, OPCODE2 = 00021, ALU_DATA = 000000000000000a, UART = 00
                   4: PC = 00000010, OPCODE = 00400333003002b3, OPCODE2 = 00000, ALU_DATA = 000000000000000a, UART = 00
                   6: PC = 00000018, OPCODE = 000000000220a18b, OPCODE2 = 00021, ALU_DATA = 000000000000000a, UART = 00
                   8: PC = 00000020, OPCODE = 00400333003002b3, OPCODE2 = 00000, ALU_DATA = 000000000000000a, UART = 00
                  10: PC = 00000028, OPCODE = 000000000220b18b, OPCODE2 = 00021, ALU_DATA = 000000000000000a, UART = 00
                  12: PC = 00000030, OPCODE = 00400333003002b3, OPCODE2 = 00000, ALU_DATA = 000000000000000a, UART = 00
                  14: PC = 00000038, OPCODE = fabc1137000010b7, OPCODE2 = 00000, ALU_DATA = fabc100000001000, UART = 00
                  16: PC = 00000040, OPCODE = 0000000023410113, OPCODE2 = 00000, ALU_DATA = 00000000fabc1234, UART = 00
                  17: PC = 00000040, OPCODE = 0000000023410113, OPCODE2 = 00000, ALU_DATA = 00000000fabc1468, UART = 00
                  18: PC = 00000044, OPCODE = 000000000220918b, OPCODE2 = 00021, ALU_DATA = 00000000c1234000, UART = 00
                  20: PC = 0000004c, OPCODE = 00400333003002b3, OPCODE2 = 00000, ALU_DATA = ffffffabc1234000, UART = 00
                  22: PC = 00000054, OPCODE = 000000000220a18b, OPCODE2 = 00021, ALU_DATA = 00000000c1234000, UART = 00
                  24: PC = 0000005c, OPCODE = 00400333003002b3, OPCODE2 = 00000, ALU_DATA = 00000fabc1234000, UART = 00
                  26: PC = 00000064, OPCODE = 000000000211218b, OPCODE2 = 00021, ALU_DATA = 00000000c1234000, UART = 00
                  28: PC = 0000006c, OPCODE = 00400333003002b3, OPCODE2 = 00000, ALU_DATA = ffffffabc1234000, UART = 00
                  30: PC = 00000074, OPCODE = 000000000220b18b, OPCODE2 = 00021, ALU_DATA = 00000000c1234000, UART = 00
                  32: PC = 0000007c, OPCODE = 00400333003002b3, OPCODE2 = 00000, ALU_DATA = 00000fabc1234000, UART = 00
                  34: PC = 00000084, OPCODE = 000000008000008b, OPCODE2 = 0091c, ALU_DATA = 0000000080000123, UART = 00
                  36: PC = 0000008c, OPCODE = 000000000200918b, OPCODE2 = 00021, ALU_DATA = 0000000000000000, UART = 00
                  38: PC = 00000094, OPCODE = 00400333003002b3, OPCODE2 = 00000, ALU_DATA = 0000000000000000, UART = 00
                  40: PC = 0000009c, OPCODE = 000000000200a18b, OPCODE2 = 00021, ALU_DATA = 0000000000000000, UART = 00
                  42: PC = 000000a4, OPCODE = 00400333003002b3, OPCODE2 = 00000, ALU_DATA = 0000000000000000, UART = 00
                  44: PC = 000000ac, OPCODE = 000000000200b18b, OPCODE2 = 00021, ALU_DATA = 0000000000000000, UART = 00
                  46: PC = 000000b4, OPCODE = 00400333003002b3, OPCODE2 = 00000, ALU_DATA = 0000000000000000, UART = 00
                  48: PC = 000000bc, OPCODE = 0000000000500113, OPCODE2 = 00000, ALU_DATA = 0000000000000005, UART = 00
                  50: PC = 000000c0, OPCODE = 000000000220918b, OPCODE2 = 00021, ALU_DATA = 00000000800005af, UART = 00
                  52: PC = 000000c8, OPCODE = 00400333003002b3, OPCODE2 = 00000, ALU_DATA = fffffffd800005af, UART = 00
                  54: PC = 000000d0, OPCODE = 000000000220a18b, OPCODE2 = 00021, ALU_DATA = 00000000800005af, UART = 00
                  56: PC = 000000d8, OPCODE = 00400333003002b3, OPCODE2 = 00000, ALU_DATA = fffffffd800005af, UART = 00
                  58: PC = 000000e0, OPCODE = 000000000211218b, OPCODE2 = 00021, ALU_DATA = 00000000800005af, UART = 00
                  60: PC = 000000e8, OPCODE = 00400333003002b3, OPCODE2 = 00000, ALU_DATA = 00000002800005af, UART = 00
                  62: PC = 000000f0, OPCODE = 000000000220918b, OPCODE2 = 00021, ALU_DATA = 00000000800005af, UART = 00
                  64: PC = 000000f8, OPCODE = 00400333003002b3, OPCODE2 = 00000, ALU_DATA = fffffffd800005af, UART = 00
                  66: PC = 00000100, OPCODE = 0000006f00600313, OPCODE2 = 00000, ALU_DATA = 0000010400000006, UART = 00
                  68: PC = 00000104, OPCODE = 000000000000006f, OPCODE2 = 00000, ALU_DATA = 0000000000000104, UART = 00
../mytest/moptest3.hex
WARNING: RV32IM-2new.v:28: $readmemh(test.hex): Not enough words in the file for the requested range [0:16383].
WARNING: RV32IM-2new.v:585: $readmemh(test.hex): Not enough words in the file for the requested range [0:16383].
VCD info: dumpfile RV32IM.vcd opened for output.
                   0: PC = 00000000, OPCODE = 0020011300700093, OPCODE2 = 00000, ALU_DATA = 0000000200000007, UART = 00
                   2: PC = 00000008, OPCODE = 000000000220c18b, OPCODE2 = 00021, ALU_DATA = 0000000000000003, UART = 00
                   4: PC = 00000010, OPCODE = 00400333003002b3, OPCODE2 = 00000, ALU_DATA = 0000000100000003, UART = 00
                   6: PC = 00000018, OPCODE = 000000000220d18b, OPCODE2 = 00021, ALU_DATA = 0000000000000003, UART = 00
                   8: PC = 00000020, OPCODE = 00400333003002b3, OPCODE2 = 00000, ALU_DATA = 0000000100000003, UART = 00
                  10: PC = 00000028, OPCODE = 0030011301900093, OPCODE2 = 00000, ALU_DATA = 0000000300000019, UART = 00
                  12: PC = 00000030, OPCODE = 000000000220c18b, OPCODE2 = 00021, ALU_DATA = 0000000000000008, UART = 00
                  14: PC = 00000038, OPCODE = 00400333003002b3, OPCODE2 = 00000, ALU_DATA = 0000000100000008, UART = 00
                  16: PC = 00000040, OPCODE = 000000000220d18b, OPCODE2 = 00021, ALU_DATA = 0000000000000008, UART = 00
                  18: PC = 00000048, OPCODE = 00400333003002b3, OPCODE2 = 00000, ALU_DATA = 0000000100000008, UART = 00
                  20: PC = 00000050, OPCODE = 0190011300300093, OPCODE2 = 00000, ALU_DATA = 0000001900000003, UART = 00
                  22: PC = 00000058, OPCODE = 000000000220c18b, OPCODE2 = 00021, ALU_DATA = 0000000000000000, UART = 00
                  24: PC = 00000060, OPCODE = 00400333003002b3, OPCODE2 = 00000, ALU_DATA = 0000000300000000, UART = 00
                  26: PC = 00000068, OPCODE = 000000000220d18b, OPCODE2 = 00021, ALU_DATA = 0000000000000000, UART = 00
                  28: PC = 00000070, OPCODE = 00400333003002b3, OPCODE2 = 00000, ALU_DATA = 0000000300000000, UART = 00
                  30: PC = 00000078, OPCODE = ff90011301900093, OPCODE2 = 00000, ALU_DATA = fffffff900000019, UART = 00
                  32: PC = 00000080, OPCODE = 000000000220c18b, OPCODE2 = 00021, ALU_DATA = 00000000fffffffd, UART = 00
                  34: PC = 00000088, OPCODE = 00400333003002b3, OPCODE2 = 00000, ALU_DATA = 00000004fffffffd, UART = 00
                  36: PC = 00000090, OPCODE = 000000000220d18b, OPCODE2 = 00021, ALU_DATA = 0000000000000000, UART = 00
                  38: PC = 00000098, OPCODE = 00400333003002b3, OPCODE2 = 00000, ALU_DATA = 0000001900000000, UART = 00
                  40: PC = 000000a0, OPCODE = 000000000000006f, OPCODE2 = 00000, ALU_DATA = 00000000000000a0, UART = 00
../mytest/moptest4.hex
WARNING: RV32IM-2new.v:28: $readmemh(test.hex): Not enough words in the file for the requested range [0:16383].
WARNING: RV32IM-2new.v:585: $readmemh(test.hex): Not enough words in the file for the requested range [0:16383].
VCD info: dumpfile RV32IM.vcd opened for output.
                   0: PC = 00000000, OPCODE = 0000000000000093, OPCODE2 = 00000, ALU_DATA = 0000000000000000, UART = 00
                   2: PC = 00000004, OPCODE = 000000000000a10b, OPCODE2 = 0001e, ALU_DATA = 0000000000000000, UART = 00
                   4: PC = 0000000c, OPCODE = 0001801300010013, OPCODE2 = 00000, ALU_DATA = 0000a10300000093, UART = 00
                   6: PC = 00000014, OPCODE = 0000000000400093, OPCODE2 = 00000, ALU_DATA = 0000000000000004, UART = 00
                   8: PC = 00000018, OPCODE = 000000000040a10b, OPCODE2 = 0001e, ALU_DATA = 0000000000000008, UART = 00
                  10: PC = 00000020, OPCODE = 0001801300010013, OPCODE2 = 00000, ALU_DATA = 000100130040a183, UART = 00
                  12: PC = 00000028, OPCODE = 11ffb13710000093, OPCODE2 = 00000, ALU_DATA = 11ffb00000000100, UART = 00
                  14: PC = 00000030, OPCODE = bb8831b7a9910113, OPCODE2 = 00000, ALU_DATA = bb88300011ffaa99, UART = 00
                  15: PC = 00000030, OPCODE = bb8831b7a9910113, OPCODE2 = 00000, ALU_DATA = bb88300011ffa532, UART = 00
                  16: PC = 00000038, OPCODE = 0000000032218193, OPCODE2 = 00000, ALU_DATA = 00000000bb883322, UART = 00
                  17: PC = 00000038, OPCODE = 0000000032218193, OPCODE2 = 00000, ALU_DATA = 00000000bb883644, UART = 00
                  18: PC = 0000003c, OPCODE = 000000000020a00b, OPCODE2 = 0801e, ALU_DATA = 0000000000000100, UART = 00
                  20: PC = 00000044, OPCODE = 000000000000a20b, OPCODE2 = 0002e, ALU_DATA = 0000000000000100, UART = 00
                  22: PC = 0000004c, OPCODE = 0002801300020013, OPCODE2 = 00000, ALU_DATA = bb88332211ffaa99, UART = 00
                  24: PC = 00000054, OPCODE = 000000000020a20b, OPCODE2 = 1801e, ALU_DATA = 0000000000000104, UART = 00
                  26: PC = 0000005c, OPCODE = 000000000040a20b, OPCODE2 = 1002e, ALU_DATA = 0000000000000104, UART = 00
                  28: PC = 00000064, OPCODE = 0002801300020013, OPCODE2 = 00000, ALU_DATA = bb88332211ffaa99, UART = 00
                  30: PC = 0000006c, OPCODE = 004080930000a303, OPCODE2 = 00000, ALU_DATA = 0000010400000100, UART = 00
                  31: PC = 0000006c, OPCODE = 004080930000a303, OPCODE2 = 00000, ALU_DATA = 0000010800000104, UART = 00
                  32: PC = 00000074, OPCODE = 0000006f00008013, OPCODE2 = 00000, ALU_DATA = 0000007800000104, UART = 00
                  34: PC = 00000078, OPCODE = 000000000000006f, OPCODE2 = 00000, ALU_DATA = 0000000000000078, UART = 00
../mytest/moptest5.hex
WARNING: RV32IM-2new.v:28: $readmemh(test.hex): Not enough words in the file for the requested range [0:16383].
WARNING: RV32IM-2new.v:585: $readmemh(test.hex): Not enough words in the file for the requested range [0:16383].
VCD info: dumpfile RV32IM.vcd opened for output.
                   0: PC = 00000000, OPCODE = beefa13700800093, OPCODE2 = 00000, ALU_DATA = beefa00000000008, UART = 00
                   2: PC = 00000008, OPCODE = 0000000066410113, OPCODE2 = 00000, ALU_DATA = 00000000beefa664, UART = 00
                   3: PC = 00000008, OPCODE = 0000000066410113, OPCODE2 = 00000, ALU_DATA = 00000000beefacc8, UART = 00
                   4: PC = 0000000c, OPCODE = 000000130020a023, OPCODE2 = 00000, ALU_DATA = 0000000000000008, UART = 00
                   6: PC = 00000014, OPCODE = 00c0009300000013, OPCODE2 = 00000, ALU_DATA = 0000000c00000000, UART = 00
                   8: PC = 0000001c, OPCODE = 000000001234510b, OPCODE2 = 033c4, ALU_DATA = 0000000012345678, UART = 00
                  10: PC = 00000024, OPCODE = 000000130020a023, OPCODE2 = 00000, ALU_DATA = 000000000000000c, UART = 00
                  12: PC = 0000002c, OPCODE = 0020009300000013, OPCODE2 = 00000, ALU_DATA = 0000000200000000, UART = 00
                  14: PC = 00000034, OPCODE = 0ff0019300400113, OPCODE2 = 00000, ALU_DATA = 000000ff00000004, UART = 00
                  16: PC = 0000003c, OPCODE = 000000000010918b, OPCODE2 = 00012, ALU_DATA = 0000000000000008, UART = 00
                  18: PC = 00000044, OPCODE = 000000000001a183, OPCODE2 = 00000, ALU_DATA = 0000000000000008, UART = 00
                  19: PC = 00000044, OPCODE = 000000000001a183, OPCODE2 = 00000, ALU_DATA = 00000000beefa664, UART = 00
                  20: PC = 00000048, OPCODE = 003002b3003002b3, OPCODE2 = 00000, ALU_DATA = beefa664beefa664, UART = 00
                  22: PC = 00000050, OPCODE = 00209193003002b3, OPCODE2 = 00000, ALU_DATA = 00000008beefa664, UART = 00
                  23: PC = 00000050, OPCODE = 00209193003002b3, OPCODE2 = 00000, ALU_DATA = 0000000800000008, UART = 00
                  24: PC = 00000058, OPCODE = 000000000021818b, OPCODE2 = 10003, ALU_DATA = 000000000000000c, UART = 00
                  25: PC = 00000058, OPCODE = 000000000021818b, OPCODE2 = 10003, ALU_DATA = 000000001234567c, UART = 00
                  26: PC = 00000060, OPCODE = 003002b3003002b3, OPCODE2 = 00000, ALU_DATA = 1234567812345678, UART = 00
                  28: PC = 00000068, OPCODE = 00309193003002b3, OPCODE2 = 00000, ALU_DATA = 0000001012345678, UART = 00
                  29: PC = 00000068, OPCODE = 00309193003002b3, OPCODE2 = 00000, ALU_DATA = 0000001000000010, UART = 00
                  30: PC = 00000070, OPCODE = 000000000021818b, OPCODE2 = 10003, ALU_DATA = 0000000000000014, UART = 00
                  31: PC = 00000070, OPCODE = 000000000021818b, OPCODE2 = 10003, ALU_DATA = 0000000000000017, UART = 00
                  32: PC = 00000078, OPCODE = 00109193003002b3, OPCODE2 = 00000, ALU_DATA = 0000000400000013, UART = 00
                  33: PC = 00000078, OPCODE = 00109193003002b3, OPCODE2 = 00000, ALU_DATA = 0000000400000004, UART = 00
                  34: PC = 00000080, OPCODE = 000000000021818b, OPCODE2 = 10003, ALU_DATA = 0000000000000008, UART = 00
                  35: PC = 00000080, OPCODE = 000000000021818b, OPCODE2 = 10003, ALU_DATA = 00000000beefa668, UART = 00
                  36: PC = 00000088, OPCODE = 003002b3003002b3, OPCODE2 = 00000, ALU_DATA = beefa664beefa664, UART = 00
                  38: PC = 00000090, OPCODE = 0000006f003002b3, OPCODE2 = 00000, ALU_DATA = 00000094beefa664, UART = 00
                  40: PC = 00000094, OPCODE = 000000000000006f, OPCODE2 = 00000, ALU_DATA = 0000000000000094, UART = 00
../mytest/moptest6.hex
WARNING: RV32IM-2new.v:28: $readmemh(test.hex): Not enough words in the file for the requested range [0:16383].
WARNING: RV32IM-2new.v:585: $readmemh(test.hex): Not enough words in the file for the requested range [0:16383].
VCD info: dumpfile RV32IM.vcd opened for output.
                   0: PC = 00000000, OPCODE = 0000000000000093, OPCODE2 = 00000, ALU_DATA = 0000000000000000, UART = 00
                   2: PC = 00000004, OPCODE = 000000000000a10b, OPCODE2 = 0001e, ALU_DATA = 0000000000000000, UART = 00
                   4: PC = 0000000c, OPCODE = 000100130080a203, OPCODE2 = 00000, ALU_DATA = 0000009300000008, UART = 00
                   6: PC = 00000014, OPCODE = 0002001300018013, OPCODE2 = 00000, ALU_DATA = 0040a1830000a103, UART = 00
                   8: PC = 0000001c, OPCODE = 0000000000400093, OPCODE2 = 00000, ALU_DATA = 0000000000000004, UART = 00
                  10: PC = 00000020, OPCODE = 000000000080a10b, OPCODE2 = 1001e, ALU_DATA = 000000000000000c, UART = 00
                  12: PC = 00000028, OPCODE = 000100130000a203, OPCODE2 = 00000, ALU_DATA = 0080a20300000004, UART = 00
                  14: PC = 00000030, OPCODE = 0002001300018013, OPCODE2 = 00000, ALU_DATA = 0000a1030040a183, UART = 00
                  16: PC = 00000038, OPCODE = 11ffb13710000093, OPCODE2 = 00000, ALU_DATA = 11ffb00000000100, UART = 00
                  18: PC = 00000040, OPCODE = bb8831b7a9910113, OPCODE2 = 00000, ALU_DATA = bb88300011ffaa99, UART = 00
                  19: PC = 00000040, OPCODE = bb8831b7a9910113, OPCODE2 = 00000, ALU_DATA = bb88300011ffa532, UART = 00
                  20: PC = 00000048, OPCODE = 0000000032218193, OPCODE2 = 00000, ALU_DATA = 00000000bb883322, UART = 00
                  21: PC = 00000048, OPCODE = 0000000032218193, OPCODE2 = 00000, ALU_DATA = 00000000bb883644, UART = 00
                  22: PC = 0000004c, OPCODE = 000000000020a00b, OPCODE2 = 0801e, ALU_DATA = 0000000000000100, UART = 00
                  24: PC = 00000054, OPCODE = 000000000040a423, OPCODE2 = 00000, ALU_DATA = 0000000000000108, UART = 00
                  26: PC = 00000058, OPCODE = 000000000000a28b, OPCODE2 = 00036, ALU_DATA = 0000000000000100, UART = 00
                  28: PC = 00000060, OPCODE = 000280130080a383, OPCODE2 = 00000, ALU_DATA = 11ffaa9900000108, UART = 00
                  30: PC = 00000068, OPCODE = 0003801300030013, OPCODE2 = 00000, ALU_DATA = 0000a103bb883322, UART = 00
                  32: PC = 00000070, OPCODE = 000000000020a60b, OPCODE2 = 1801e, ALU_DATA = 000000000000010c, UART = 00
                  34: PC = 00000078, OPCODE = 000000000040a223, OPCODE2 = 00000, ALU_DATA = 0000000000000104, UART = 00
                  36: PC = 0000007c, OPCODE = 0000000000c0a28b, OPCODE2 = 10036, ALU_DATA = 000000000000010c, UART = 00
                  38: PC = 00000084, OPCODE = 000280130040a383, OPCODE2 = 00000, ALU_DATA = 11ffaa9900000104, UART = 00
                  40: PC = 0000008c, OPCODE = 0003801300030013, OPCODE2 = 00000, ALU_DATA = 0000a103bb883322, UART = 00
                  42: PC = 00000094, OPCODE = 004080930000a303, OPCODE2 = 00000, ALU_DATA = 0000010400000100, UART = 00
                  43: PC = 00000094, OPCODE = 004080930000a303, OPCODE2 = 00000, ALU_DATA = 0000010800000104, UART = 00
                  44: PC = 0000009c, OPCODE = 0000006f00008013, OPCODE2 = 00000, ALU_DATA = 000000a000000104, UART = 00
                  46: PC = 000000a0, OPCODE = 000000000000006f, OPCODE2 = 00000, ALU_DATA = 00000000000000a0, UART = 00
